InvoiceNo;StockCode;Description;Quantity;InvoiceDate;UnitPrice;CustomerID;Country
536409;72802C;VANILLA SCENT CANDLE JEWELLED BOX;1;01/12/2010 11:45;4,25;17908;United Kingdom
536597;72802C;VANILLA SCENT CANDLE JEWELLED BOX;3;01/12/2010 17:35;4,25;18011;United Kingdom
536988;72802A;ROSE SCENT CANDLE IN JEWELLED BOX;1;03/12/2010 15:05;4,25;17238;United Kingdom
536989;72802B;OCEAN SCENT CANDLE IN JEWELLED BOX;2;03/12/2010 15:10;4,25;17238;United Kingdom
537022;72802A;ROSE SCENT CANDLE IN JEWELLED BOX;6;03/12/2010 15:45;4,25;12725;Italy
537044;72802C;VANILLA SCENT CANDLE JEWELLED BOX;6;05/12/2010 10:52;4,25;18055;United Kingdom
537044;72802B;OCEAN SCENT CANDLE IN JEWELLED BOX;6;05/12/2010 10:52;4,25;18055;United Kingdom
537045;72802A;ROSE SCENT CANDLE IN JEWELLED BOX;1;05/12/2010 10:54;4,25;15038;United Kingdom
537045;72802C;VANILLA SCENT CANDLE JEWELLED BOX;1;05/12/2010 10:54;4,25;15038;United Kingdom
537045;72802B;OCEAN SCENT CANDLE IN JEWELLED BOX;1;05/12/2010 10:54;4,25;15038;United Kingdom
537045;72802A;ROSE SCENT CANDLE IN JEWELLED BOX;1;05/12/2010 10:54;4,25;15038;United Kingdom
537045;72802C;VANILLA SCENT CANDLE JEWELLED BOX;2;05/12/2010 10:54;4,25;15038;United Kingdom
537210;72802C;VANILLA SCENT CANDLE JEWELLED BOX;3;05/12/2010 15:15;4,25;15953;United Kingdom
537210;72802B;OCEAN SCENT CANDLE IN JEWELLED BOX;3;05/12/2010 15:15;4,25;15953;United Kingdom
537254;72802B;OCEAN SCENT CANDLE IN JEWELLED BOX;4;06/12/2010 11:01;4,25;15898;United Kingdom
537377;72802A;ROSE SCENT CANDLE IN JEWELLED BOX;12;06/12/2010 13:01;4,25;15882;United Kingdom
537399;72802C;VANILLA SCENT CANDLE JEWELLED BOX;6;06/12/2010 14:31;4,25;13030;United Kingdom
537409;72802C;VANILLA SCENT CANDLE JEWELLED BOX;6;06/12/2010 15:00;4,25;15194;United Kingdom
537422;72802C;VANILLA SCENT CANDLE JEWELLED BOX;1;06/12/2010 15:27;4,25;17812;United Kingdom
537422;72802C;VANILLA SCENT CANDLE JEWELLED BOX;1;06/12/2010 15:27;4,25;17812;United Kingdom
537440;72802A;ROSE SCENT CANDLE IN JEWELLED BOX;6;06/12/2010 17:16;4,25;17869;United Kingdom
537624;72802B;OCEAN SCENT CANDLE IN JEWELLED BOX;1;07/12/2010 14:41;4,25;12748;United Kingdom
537769;72802C;VANILLA SCENT CANDLE JEWELLED BOX;1;08/12/2010 12:17;4,25;15021;United Kingdom
537769;72802A;ROSE SCENT CANDLE IN JEWELLED BOX;1;08/12/2010 12:17;4,25;15021;United Kingdom
537823;72802B;OCEAN SCENT CANDLE IN JEWELLED BOX;1;08/12/2010 14:25;8,47;;United Kingdom
537823;72802C;VANILLA SCENT CANDLE JEWELLED BOX;3;08/12/2010 14:25;8,47;;United Kingdom
537855;72802C;VANILLA SCENT CANDLE JEWELLED BOX;2;08/12/2010 15:59;4,25;15996;United Kingdom
537867;72802C;VANILLA SCENT CANDLE JEWELLED BOX;6;08/12/2010 16:48;4,25;16717;United Kingdom
538014;72802B;OCEAN SCENT CANDLE IN JEWELLED BOX;12;09/12/2010 12:49;4,25;14440;United Kingdom
538071;72802C;VANILLA SCENT CANDLE JEWELLED BOX;1;09/12/2010 14:09;8,47;;United Kingdom
538177;72802C;VANILLA SCENT CANDLE JEWELLED BOX;1;10/12/2010 09:51;8,47;;United Kingdom
538356;72802C;VANILLA SCENT CANDLE JEWELLED BOX;18;10/12/2010 15:56;3,81;14062;United Kingdom
538356;72802A;ROSE SCENT CANDLE IN JEWELLED BOX;18;10/12/2010 15:56;3,81;14062;United Kingdom
538566;72802C;VANILLA SCENT CANDLE JEWELLED BOX;1;13/12/2010 11:21;8,47;;United Kingdom
538626;72802C;VANILLA SCENT CANDLE JEWELLED BOX;6;13/12/2010 12:57;4,25;17338;United Kingdom
538626;72802B;OCEAN SCENT CANDLE IN JEWELLED BOX;1;13/12/2010 12:57;4,25;17338;United Kingdom
538652;72802B;OCEAN SCENT CANDLE IN JEWELLED BOX;1;13/12/2010 15:12;4,25;17890;United Kingdom
538661;72802C;VANILLA SCENT CANDLE JEWELLED BOX;12;13/12/2010 15:42;4,25;15194;United Kingdom
538778;72802B;OCEAN SCENT CANDLE IN JEWELLED BOX;1;14/12/2010 11:37;4,25;;United Kingdom
C538803;72802B;OCEAN SCENT CANDLE IN JEWELLED BOX;-1;14/12/2010 11:55;4,25;16262;United Kingdom
539074;72802B;OCEAN SCENT CANDLE IN JEWELLED BOX;1;15/12/2010 17:15;4,25;;United Kingdom
539196;72802A;ROSE SCENT CANDLE IN JEWELLED BOX;6;16/12/2010 12:09;4,25;18055;United Kingdom
539196;72802B;OCEAN SCENT CANDLE IN JEWELLED BOX;6;16/12/2010 12:09;4,25;18055;United Kingdom
539196;72802C;VANILLA SCENT CANDLE JEWELLED BOX;6;16/12/2010 12:09;4,25;18055;United Kingdom
539294;72802B;OCEAN SCENT CANDLE IN JEWELLED BOX;1;16/12/2010 16:45;4,25;15532;United Kingdom
539434;72802C;VANILLA SCENT CANDLE JEWELLED BOX;1;17/12/2010 14:41;8,47;;United Kingdom
539455;72802C;VANILLA SCENT CANDLE JEWELLED BOX;2;17/12/2010 17:17;4,25;12748;United Kingdom
539473;72802C;VANILLA SCENT CANDLE JEWELLED BOX;6;19/12/2010 14:24;4,25;14911;EIRE
539473;72802B;OCEAN SCENT CANDLE IN JEWELLED BOX;6;19/12/2010 14:24;4,25;14911;EIRE
539493;72802B;OCEAN SCENT CANDLE IN JEWELLED BOX;1;20/12/2010 10:15;4,25;;United Kingdom
539498;72802C;VANILLA SCENT CANDLE JEWELLED BOX;6;20/12/2010 10:48;4,25;15279;United Kingdom
539500;72802B;OCEAN SCENT CANDLE IN JEWELLED BOX;54;20/12/2010 11:02;3,81;;Bahrain
539647;72802A;ROSE SCENT CANDLE IN JEWELLED BOX;1;20/12/2010 16:08;4,25;15460;United Kingdom
539658;72802A;ROSE SCENT CANDLE IN JEWELLED BOX;6;21/12/2010 09:34;4,25;17213;United Kingdom
539954;72802A;ROSE SCENT CANDLE IN JEWELLED BOX;12;23/12/2010 12:04;3,81;13777;United Kingdom
539988;72802B;OCEAN SCENT CANDLE IN JEWELLED BOX;1;23/12/2010 16:06;4,25;18116;United Kingdom
539988;72802C;VANILLA SCENT CANDLE JEWELLED BOX;1;23/12/2010 16:06;4,25;18116;United Kingdom
539988;72802A;ROSE SCENT CANDLE IN JEWELLED BOX;1;23/12/2010 16:06;4,25;18116;United Kingdom
C540155;72802B;OCEAN SCENT CANDLE IN JEWELLED BOX;-54;05/01/2011 11:31;3,81;;Bahrain
540247;72802B;OCEAN SCENT CANDLE IN JEWELLED BOX;1;05/01/2011 15:56;4,25;15464;United Kingdom
540839;72802A;ROSE SCENT CANDLE IN JEWELLED BOX;1;11/01/2011 15:42;4,25;16791;United Kingdom
540839;72802B;OCEAN SCENT CANDLE IN JEWELLED BOX;1;11/01/2011 15:42;4,25;16791;United Kingdom
540839;72802C;VANILLA SCENT CANDLE JEWELLED BOX;1;11/01/2011 15:42;4,25;16791;United Kingdom
540984;72802C;VANILLA SCENT CANDLE JEWELLED BOX;3;12/01/2011 15:44;4,25;14167;United Kingdom
540984;72802A;ROSE SCENT CANDLE IN JEWELLED BOX;2;12/01/2011 15:44;4,25;14167;United Kingdom
541018;72802C;VANILLA SCENT CANDLE JEWELLED BOX;1;13/01/2011 12:03;4,25;14978;United Kingdom
541018;72802A;ROSE SCENT CANDLE IN JEWELLED BOX;1;13/01/2011 12:03;4,25;14978;United Kingdom
541018;72802B;OCEAN SCENT CANDLE IN JEWELLED BOX;1;13/01/2011 12:03;4,25;14978;United Kingdom
541252;72802A;ROSE SCENT CANDLE IN JEWELLED BOX;6;16/01/2011 13:41;4,25;13064;United Kingdom
541652;72802C;VANILLA SCENT CANDLE JEWELLED BOX;1;20/01/2011 11:49;4,25;;United Kingdom
541789;72802C;VANILLA SCENT CANDLE JEWELLED BOX;12;21/01/2011 13:07;3,81;14088;United Kingdom
541789;72802B;OCEAN SCENT CANDLE IN JEWELLED BOX;6;21/01/2011 13:07;3,81;14088;United Kingdom
541789;72802A;ROSE SCENT CANDLE IN JEWELLED BOX;6;21/01/2011 13:07;3,81;14088;United Kingdom
542103;72802B;OCEAN SCENT CANDLE IN JEWELLED BOX;6;25/01/2011 13:26;4,25;13198;United Kingdom
C542366;72802A;ROSE SCENT CANDLE IN JEWELLED BOX;-1;27/01/2011 12:54;3,81;13777;United Kingdom
542381;72802A;ROSE SCENT CANDLE IN JEWELLED BOX;6;27/01/2011 14:07;4,25;17213;United Kingdom
542381;72802B;OCEAN SCENT CANDLE IN JEWELLED BOX;6;27/01/2011 14:07;4,25;17213;United Kingdom
542534;72802A;ROSE SCENT CANDLE IN JEWELLED BOX;6;28/01/2011 13:27;4,25;13707;United Kingdom
542534;72802B;OCEAN SCENT CANDLE IN JEWELLED BOX;6;28/01/2011 13:27;4,25;13707;United Kingdom
542534;72802C;VANILLA SCENT CANDLE JEWELLED BOX;6;28/01/2011 13:27;4,25;13707;United Kingdom
542585;72802A;ROSE SCENT CANDLE IN JEWELLED BOX;18;28/01/2011 15:29;3,81;17329;United Kingdom
542585;72802C;VANILLA SCENT CANDLE JEWELLED BOX;18;28/01/2011 15:29;3,81;17329;United Kingdom
542617;72802B;OCEAN SCENT CANDLE IN JEWELLED BOX;4;30/01/2011 15:48;4,25;17463;United Kingdom
542617;72802A;ROSE SCENT CANDLE IN JEWELLED BOX;3;30/01/2011 15:48;4,25;17463;United Kingdom
543182;72802A;ROSE SCENT CANDLE IN JEWELLED BOX;1;04/02/2011 10:40;8,29;;United Kingdom
543371;72802B;OCEAN SCENT CANDLE IN JEWELLED BOX;1;07/02/2011 14:53;4,25;14048;United Kingdom
543371;72802C;VANILLA SCENT CANDLE JEWELLED BOX;1;07/02/2011 14:53;4,25;14048;United Kingdom
543592;72802B;OCEAN SCENT CANDLE IN JEWELLED BOX;6;10/02/2011 11:57;4,25;17243;United Kingdom
543592;72802C;VANILLA SCENT CANDLE JEWELLED BOX;6;10/02/2011 11:57;4,25;17243;United Kingdom
544304;72802C;VANILLA SCENT CANDLE JEWELLED BOX;1;17/02/2011 13:47;4,25;18125;United Kingdom
544304;72802B;OCEAN SCENT CANDLE IN JEWELLED BOX;1;17/02/2011 13:47;4,25;18125;United Kingdom
544304;72802A;ROSE SCENT CANDLE IN JEWELLED BOX;1;17/02/2011 13:47;4,25;18125;United Kingdom
544316;72802C;VANILLA SCENT CANDLE JEWELLED BOX;6;17/02/2011 14:49;4,25;16556;United Kingdom
544324;72802C;VANILLA SCENT CANDLE JEWELLED BOX;1;17/02/2011 16:08;4,25;;United Kingdom
544778;72802C;VANILLA SCENT CANDLE JEWELLED BOX;2;23/02/2011 12:03;4,25;14978;United Kingdom
544887;72802C;VANILLA SCENT CANDLE JEWELLED BOX;6;24/02/2011 11:54;4,25;17364;United Kingdom
544970;72802A;ROSE SCENT CANDLE IN JEWELLED BOX;6;25/02/2011 11:33;4,25;13362;United Kingdom
544970;72802B;OCEAN SCENT CANDLE IN JEWELLED BOX;6;25/02/2011 11:33;4,25;13362;United Kingdom
545039;72802C;VANILLA SCENT CANDLE JEWELLED BOX;6;27/02/2011 10:22;4,25;17243;United Kingdom
545054;72802A;ROSE SCENT CANDLE IN JEWELLED BOX;2;27/02/2011 12:41;4,25;14472;United Kingdom
545054;72802B;OCEAN SCENT CANDLE IN JEWELLED BOX;1;27/02/2011 12:41;4,25;14472;United Kingdom
545215;72802A;ROSE SCENT CANDLE IN JEWELLED BOX;1;28/02/2011 16:47;8,29;;United Kingdom
545649;72802B;OCEAN SCENT CANDLE IN JEWELLED BOX;1;04/03/2011 13:14;4,25;14995;United Kingdom
545649;72802C;VANILLA SCENT CANDLE JEWELLED BOX;1;04/03/2011 13:14;4,25;14995;United Kingdom
545649;72802A;ROSE SCENT CANDLE IN JEWELLED BOX;1;04/03/2011 13:14;4,25;14995;United Kingdom
545895;72802B;OCEAN SCENT CANDLE IN JEWELLED BOX;1;07/03/2011 17:14;8,29;;United Kingdom
545993;72802A;ROSE SCENT CANDLE IN JEWELLED BOX;24;08/03/2011 13:23;3,81;13777;United Kingdom
546580;72802A;ROSE SCENT CANDLE IN JEWELLED BOX;18;15/03/2011 11:09;3,81;14911;EIRE
546580;72802B;OCEAN SCENT CANDLE IN JEWELLED BOX;18;15/03/2011 11:09;3,81;14911;EIRE
546580;72802C;VANILLA SCENT CANDLE JEWELLED BOX;18;15/03/2011 11:09;3,81;14911;EIRE
546625;72802A;ROSE SCENT CANDLE IN JEWELLED BOX;6;15/03/2011 11:45;4,25;17542;United Kingdom
546862;72802C;VANILLA SCENT CANDLE JEWELLED BOX;6;17/03/2011 15:34;4,25;16216;United Kingdom
546911;72802C;VANILLA SCENT CANDLE JEWELLED BOX;6;17/03/2011 19:47;4,25;17725;United Kingdom
547049;72802C;VANILLA SCENT CANDLE JEWELLED BOX;6;20/03/2011 11:56;4,25;17134;United Kingdom
547226;72802B;OCEAN SCENT CANDLE IN JEWELLED BOX;2;21/03/2011 15:33;4,25;14167;United Kingdom
547226;72802A;ROSE SCENT CANDLE IN JEWELLED BOX;2;21/03/2011 15:33;4,25;14167;United Kingdom
547556;72802C;VANILLA SCENT CANDLE JEWELLED BOX;2;23/03/2011 16:45;4,25;17250;United Kingdom
547702;72802B;OCEAN SCENT CANDLE IN JEWELLED BOX;6;24/03/2011 16:45;4,25;14911;EIRE
547702;72802C;VANILLA SCENT CANDLE JEWELLED BOX;6;24/03/2011 16:45;4,25;14911;EIRE
547860;72802A;ROSE SCENT CANDLE IN JEWELLED BOX;3;27/03/2011 12:21;4,25;17625;United Kingdom
547860;72802B;OCEAN SCENT CANDLE IN JEWELLED BOX;3;27/03/2011 12:21;4,25;17625;United Kingdom
547860;72802C;VANILLA SCENT CANDLE JEWELLED BOX;3;27/03/2011 12:21;4,25;17625;United Kingdom
547964;72802A;ROSE SCENT CANDLE IN JEWELLED BOX;1;28/03/2011 15:45;8,29;;United Kingdom
547964;72802B;OCEAN SCENT CANDLE IN JEWELLED BOX;1;28/03/2011 15:45;8,29;;United Kingdom
547964;72802C;VANILLA SCENT CANDLE JEWELLED BOX;1;28/03/2011 15:45;8,29;;United Kingdom
548150;72802B;OCEAN SCENT CANDLE IN JEWELLED BOX;2;29/03/2011 12:55;4,25;17315;United Kingdom
548386;72802C;VANILLA SCENT CANDLE JEWELLED BOX;1;30/03/2011 16:48;4,25;;United Kingdom
548739;72802B;OCEAN SCENT CANDLE IN JEWELLED BOX;1;04/04/2011 11:28;4,25;15493;United Kingdom
548808;72802B;OCEAN SCENT CANDLE IN JEWELLED BOX;2;04/04/2011 12:55;4,25;17774;United Kingdom
548898;72802C;VANILLA SCENT CANDLE JEWELLED BOX;2;04/04/2011 16:28;4,25;17214;United Kingdom
548898;72802B;OCEAN SCENT CANDLE IN JEWELLED BOX;2;04/04/2011 16:28;4,25;17214;United Kingdom
549277;72802B;OCEAN SCENT CANDLE IN JEWELLED BOX;1;07/04/2011 13:11;4,25;16469;United Kingdom
549556;72802B;OCEAN SCENT CANDLE IN JEWELLED BOX;2;10/04/2011 12:53;4,25;17372;United Kingdom
549567;72802A;ROSE SCENT CANDLE IN JEWELLED BOX;1;10/04/2011 15:07;4,25;13632;United Kingdom
549567;72802C;VANILLA SCENT CANDLE JEWELLED BOX;1;10/04/2011 15:07;4,25;13632;United Kingdom
549943;72802C;VANILLA SCENT CANDLE JEWELLED BOX;1;13/04/2011 12:09;4,25;13544;United Kingdom
550458;72802A;ROSE SCENT CANDLE IN JEWELLED BOX;1;18/04/2011 13:13;8,29;;United Kingdom
550513;72802A;ROSE SCENT CANDLE IN JEWELLED BOX;1;18/04/2011 16:37;4,25;16928;United Kingdom
551270;72802C;VANILLA SCENT CANDLE JEWELLED BOX;1;27/04/2011 12:35;4,25;15891;United Kingdom
551270;72802B;OCEAN SCENT CANDLE IN JEWELLED BOX;2;27/04/2011 12:35;4,25;15891;United Kingdom
551399;72802C;VANILLA SCENT CANDLE JEWELLED BOX;1;28/04/2011 13:17;4,25;17874;United Kingdom
551399;72802B;OCEAN SCENT CANDLE IN JEWELLED BOX;1;28/04/2011 13:17;4,25;17874;United Kingdom
551412;72802A;ROSE SCENT CANDLE IN JEWELLED BOX;3;28/04/2011 13:31;4,25;15508;United Kingdom
552235;72802C;VANILLA SCENT CANDLE JEWELLED BOX;6;06/05/2011 16:17;4,25;15194;United Kingdom
552449;72802A;ROSE SCENT CANDLE IN JEWELLED BOX;6;09/05/2011 13:49;4,25;12355;Bahrain
552449;72802B;OCEAN SCENT CANDLE IN JEWELLED BOX;6;09/05/2011 13:49;4,25;12355;Bahrain
552449;72802C;VANILLA SCENT CANDLE JEWELLED BOX;6;09/05/2011 13:49;4,25;12355;Bahrain
552643;72802B;OCEAN SCENT CANDLE IN JEWELLED BOX;1;10/05/2011 13:24;4,25;16791;United Kingdom
553067;72802B;OCEAN SCENT CANDLE IN JEWELLED BOX;12;13/05/2011 11:44;4,25;16871;United Kingdom
553067;72802C;VANILLA SCENT CANDLE JEWELLED BOX;6;13/05/2011 11:44;4,25;16871;United Kingdom
C553530;72802A;ROSE SCENT CANDLE IN JEWELLED BOX;-1;17/05/2011 15:08;3,81;13777;United Kingdom
554054;72802C;VANILLA SCENT CANDLE JEWELLED BOX;1;20/05/2011 15:29;8,29;;United Kingdom
554964;72802C;VANILLA SCENT CANDLE JEWELLED BOX;4;27/05/2011 15:57;4,25;15867;United Kingdom
556768;72802B;OCEAN SCENT CANDLE IN JEWELLED BOX;6;14/06/2011 12:21;4,25;17243;United Kingdom
556768;72802C;VANILLA SCENT CANDLE JEWELLED BOX;6;14/06/2011 12:21;4,25;17243;United Kingdom
557063;72802C;VANILLA SCENT CANDLE JEWELLED BOX;4;16/06/2011 15:01;4,25;17368;United Kingdom
557066;72802B;OCEAN SCENT CANDLE IN JEWELLED BOX;6;16/06/2011 15:10;4,25;17463;United Kingdom
557500;72802C;VANILLA SCENT CANDLE JEWELLED BOX;1;20/06/2011 15:27;8,29;;United Kingdom
C557515;72802B;OCEAN SCENT CANDLE IN JEWELLED BOX;-1;20/06/2011 17:05;4,25;17463;United Kingdom
558092;72802A;ROSE SCENT CANDLE IN JEWELLED BOX;1;26/06/2011 12:54;4,25;14808;United Kingdom
558247;72802C;VANILLA SCENT CANDLE JEWELLED BOX;4;27/06/2011 16:46;4,25;14167;United Kingdom
558247;72802A;ROSE SCENT CANDLE IN JEWELLED BOX;4;27/06/2011 16:46;4,25;14167;United Kingdom
558247;72802B;OCEAN SCENT CANDLE IN JEWELLED BOX;4;27/06/2011 16:46;4,25;14167;United Kingdom
558709;72802C;VANILLA SCENT CANDLE JEWELLED BOX;2;01/07/2011 13:02;4,25;17338;United Kingdom
558809;72802a;ROSE SCENT CANDLE IN JEWELLED BOX;1;04/07/2011 11:10;8,29;;United Kingdom
558814;72802B;OCEAN SCENT CANDLE IN JEWELLED BOX;1;04/07/2011 11:47;4,25;14049;United Kingdom
559497;72802a;ROSE SCENT CANDLE IN JEWELLED BOX;6;08/07/2011 13:54;8,29;;United Kingdom
559506;72802C;VANILLA SCENT CANDLE JEWELLED BOX;1;08/07/2011 15:17;8,29;;United Kingdom
559693;72802A;ROSE SCENT CANDLE IN JEWELLED BOX;1;11/07/2011 16:21;8,29;;United Kingdom
559806;72802C;VANILLA SCENT CANDLE JEWELLED BOX;6;12/07/2011 14:26;4,25;13311;United Kingdom
559806;72802B;OCEAN SCENT CANDLE IN JEWELLED BOX;6;12/07/2011 14:26;4,25;13311;United Kingdom
559861;72802C;VANILLA SCENT CANDLE JEWELLED BOX;36;13/07/2011 10:27;3,81;15895;United Kingdom
559878;72802A;ROSE SCENT CANDLE IN JEWELLED BOX;1;13/07/2011 11:19;4,25;15493;United Kingdom
559878;72802C;VANILLA SCENT CANDLE JEWELLED BOX;2;13/07/2011 11:19;4,25;15493;United Kingdom
559878;72802B;OCEAN SCENT CANDLE IN JEWELLED BOX;2;13/07/2011 11:19;4,25;15493;United Kingdom
559878;72802A;ROSE SCENT CANDLE IN JEWELLED BOX;3;13/07/2011 11:19;4,25;15493;United Kingdom
559911;72802A;ROSE SCENT CANDLE IN JEWELLED BOX;12;13/07/2011 14:39;3,81;13777;United Kingdom
560251;72802A;ROSE SCENT CANDLE IN JEWELLED BOX;3;17/07/2011 12:32;4,25;17774;United Kingdom
560251;72802B;OCEAN SCENT CANDLE IN JEWELLED BOX;3;17/07/2011 12:32;4,25;17774;United Kingdom
560385;72802C;VANILLA SCENT CANDLE JEWELLED BOX;5;18/07/2011 12:53;4,25;14583;United Kingdom
560551;72802B;OCEAN SCENT CANDLE IN JEWELLED BOX;1;19/07/2011 12:47;4,25;18041;United Kingdom
560772;72802A;ROSE SCENT CANDLE IN JEWELLED BOX;1;20/07/2011 16:12;8,29;;United Kingdom
560926;72802C;VANILLA SCENT CANDLE JEWELLED BOX;1;22/07/2011 09:20;8,29;;United Kingdom
560996;72802C;VANILLA SCENT CANDLE JEWELLED BOX;3;22/07/2011 13:53;4,25;17625;United Kingdom
560996;72802B;OCEAN SCENT CANDLE IN JEWELLED BOX;3;22/07/2011 13:53;4,25;17625;United Kingdom
561466;72802C;VANILLA SCENT CANDLE JEWELLED BOX;6;27/07/2011 12:50;4,25;17243;United Kingdom
561466;72802B;OCEAN SCENT CANDLE IN JEWELLED BOX;6;27/07/2011 12:50;4,25;17243;United Kingdom
561697;72802B;OCEAN SCENT CANDLE IN JEWELLED BOX;6;29/07/2011 10:06;4,25;18127;United Kingdom
561885;72802A;ROSE SCENT CANDLE IN JEWELLED BOX;1;31/07/2011 13:13;4,25;15532;United Kingdom
562711;72802A;ROSE SCENT CANDLE IN JEWELLED BOX;1;08/08/2011 14:53;4,25;16788;United Kingdom
562711;72802C;VANILLA SCENT CANDLE JEWELLED BOX;1;08/08/2011 14:53;4,25;16788;United Kingdom
562936;72802A;ROSE SCENT CANDLE IN JEWELLED BOX;1;10/08/2011 17:12;4,25;;United Kingdom
563259;72802B;OCEAN SCENT CANDLE IN JEWELLED BOX;6;15/08/2011 12:19;4,25;17958;United Kingdom
563259;72802C;VANILLA SCENT CANDLE JEWELLED BOX;6;15/08/2011 12:19;4,25;17958;United Kingdom
563262;72802A;ROSE SCENT CANDLE IN JEWELLED BOX;1;15/08/2011 12:44;4,25;15311;United Kingdom
563565;72802C;VANILLA SCENT CANDLE JEWELLED BOX;6;17/08/2011 14:22;4,25;17338;United Kingdom
563565;72802A;ROSE SCENT CANDLE IN JEWELLED BOX;3;17/08/2011 14:22;4,25;17338;United Kingdom
563565;72802B;OCEAN SCENT CANDLE IN JEWELLED BOX;3;17/08/2011 14:22;4,25;17338;United Kingdom
563692;72802B;OCEAN SCENT CANDLE IN JEWELLED BOX;6;18/08/2011 13:01;4,25;17243;United Kingdom
563692;72802C;VANILLA SCENT CANDLE JEWELLED BOX;6;18/08/2011 13:01;4,25;17243;United Kingdom
563720;72802C;VANILLA SCENT CANDLE JEWELLED BOX;6;18/08/2011 16:24;4,25;15867;United Kingdom
563720;72802B;OCEAN SCENT CANDLE IN JEWELLED BOX;6;18/08/2011 16:24;4,25;15867;United Kingdom
564370;72802C;VANILLA SCENT CANDLE JEWELLED BOX;6;25/08/2011 09:53;4,25;17134;United Kingdom
564370;72802B;OCEAN SCENT CANDLE IN JEWELLED BOX;6;25/08/2011 09:53;4,25;17134;United Kingdom
564734;72802A;ROSE SCENT CANDLE IN JEWELLED BOX;3;28/08/2011 13:32;4,25;12484;Spain
564846;72802C;VANILLA SCENT CANDLE JEWELLED BOX;6;30/08/2011 15:16;4,25;14507;United Kingdom
564974;72802C;VANILLA SCENT CANDLE JEWELLED BOX;1;31/08/2011 15:32;8,29;;United Kingdom
565427;72802B;OCEAN SCENT CANDLE IN JEWELLED BOX;3;04/09/2011 12:49;4,25;17774;United Kingdom
565427;72802A;ROSE SCENT CANDLE IN JEWELLED BOX;4;04/09/2011 12:49;4,25;17774;United Kingdom
566019;72802A;ROSE SCENT CANDLE IN JEWELLED BOX;6;08/09/2011 12:44;4,25;17243;United Kingdom
566019;72802C;VANILLA SCENT CANDLE JEWELLED BOX;6;08/09/2011 12:44;4,25;17243;United Kingdom
566789;72802B;OCEAN SCENT CANDLE IN JEWELLED BOX;6;15/09/2011 10:35;4,25;13134;United Kingdom
566789;72802C;VANILLA SCENT CANDLE JEWELLED BOX;6;15/09/2011 10:35;4,25;13134;United Kingdom
567310;72802A;ROSE SCENT CANDLE IN JEWELLED BOX;1;19/09/2011 13:45;4,25;15504;United Kingdom
567323;72802C;VANILLA SCENT CANDLE JEWELLED BOX;6;19/09/2011 14:23;4,25;17557;United Kingdom
567356;72802B;OCEAN SCENT CANDLE IN JEWELLED BOX;6;19/09/2011 16:21;4,25;16527;United Kingdom
567356;72802C;VANILLA SCENT CANDLE JEWELLED BOX;6;19/09/2011 16:21;4,25;16527;United Kingdom
567539;72802C;VANILLA SCENT CANDLE JEWELLED BOX;1;21/09/2011 09:58;4,25;;United Kingdom
567665;72802C;VANILLA SCENT CANDLE JEWELLED BOX;1;21/09/2011 15:22;8,29;;United Kingdom
567720;72802C;VANILLA SCENT CANDLE JEWELLED BOX;6;22/09/2011 10:37;4,25;14911;EIRE
567720;72802B;OCEAN SCENT CANDLE IN JEWELLED BOX;6;22/09/2011 10:37;4,25;14911;EIRE
568188;72802A;ROSE SCENT CANDLE IN JEWELLED BOX;1;25/09/2011 14:33;4,25;16049;United Kingdom
568188;72802B;OCEAN SCENT CANDLE IN JEWELLED BOX;1;25/09/2011 14:33;4,25;16049;United Kingdom
568188;72802C;VANILLA SCENT CANDLE JEWELLED BOX;1;25/09/2011 14:33;4,25;16049;United Kingdom
568346;72802A;ROSE SCENT CANDLE IN JEWELLED BOX;1;26/09/2011 15:28;8,29;14096;United Kingdom
570093;72802A;ROSE SCENT CANDLE IN JEWELLED BOX;1;07/10/2011 11:55;4,25;18096;United Kingdom
570210;72802C;VANILLA SCENT CANDLE JEWELLED BOX;1;09/10/2011 10:48;4,25;13259;United Kingdom
C570447;72802A;ROSE SCENT CANDLE IN JEWELLED BOX;-1;10/10/2011 14:50;4,25;16791;United Kingdom
570475;72802A;ROSE SCENT CANDLE IN JEWELLED BOX;1;10/10/2011 16:47;4,25;;United Kingdom
570488;72802A;ROSE SCENT CANDLE IN JEWELLED BOX;1;10/10/2011 17:12;8,29;14096;United Kingdom
570886;72802A;ROSE SCENT CANDLE IN JEWELLED BOX;18;13/10/2011 10:23;3,81;13777;United Kingdom
571255;72802B;OCEAN SCENT CANDLE IN JEWELLED BOX;200;14/10/2011 17:13;1,25;12454;Spain
571255;72802C;VANILLA SCENT CANDLE JEWELLED BOX;288;14/10/2011 17:13;1,25;12454;Spain
571441;72802A;ROSE SCENT CANDLE IN JEWELLED BOX;1;17/10/2011 13:31;8,29;14096;United Kingdom
C571499;72802C;VANILLA SCENT CANDLE JEWELLED BOX;-288;17/10/2011 15:07;1,25;12454;Spain
C571499;72802B;OCEAN SCENT CANDLE IN JEWELLED BOX;-200;17/10/2011 15:07;1,25;12454;Spain
571505;72802B;OCEAN SCENT CANDLE IN JEWELLED BOX;12;17/10/2011 15:19;4,25;17244;United Kingdom
572049;72802C;VANILLA SCENT CANDLE JEWELLED BOX;6;20/10/2011 12:21;4,25;17243;United Kingdom
572049;72802B;OCEAN SCENT CANDLE IN JEWELLED BOX;6;20/10/2011 12:21;4,25;17243;United Kingdom
572300;72802C;VANILLA SCENT CANDLE JEWELLED BOX;4;23/10/2011 14:40;4,25;18005;United Kingdom
572348;72802B;OCEAN SCENT CANDLE IN JEWELLED BOX;36;24/10/2011 11:21;1;15482;United Kingdom
572348;72802C;VANILLA SCENT CANDLE JEWELLED BOX;36;24/10/2011 11:21;1;15482;United Kingdom
572528;72802C;VANILLA SCENT CANDLE JEWELLED BOX;1;24/10/2011 15:43;4,25;13176;United Kingdom
572682;72802C;VANILLA SCENT CANDLE JEWELLED BOX;1;25/10/2011 13:52;4,25;17928;United Kingdom
C572754;72802C;VANILLA SCENT CANDLE JEWELLED BOX;-36;25/10/2011 17:29;1;15482;United Kingdom
C572754;72802B;OCEAN SCENT CANDLE IN JEWELLED BOX;-36;25/10/2011 17:29;1;15482;United Kingdom
572756;72802C;VANILLA SCENT CANDLE JEWELLED BOX;72;25/10/2011 17:32;0,5;15482;United Kingdom
572756;72802B;OCEAN SCENT CANDLE IN JEWELLED BOX;72;25/10/2011 17:32;0,5;15482;United Kingdom
572881;72802B;OCEAN SCENT CANDLE IN JEWELLED BOX;224;26/10/2011 13:36;0,5;12748;United Kingdom
572881;72802C;VANILLA SCENT CANDLE JEWELLED BOX;378;26/10/2011 13:36;0,5;12748;United Kingdom
572918;72802B;OCEAN SCENT CANDLE IN JEWELLED BOX;1;26/10/2011 16:43;4,25;14379;United Kingdom
572918;72802C;VANILLA SCENT CANDLE JEWELLED BOX;1;26/10/2011 16:43;4,25;14379;United Kingdom
573155;72802C;VANILLA SCENT CANDLE JEWELLED BOX;6;28/10/2011 08:34;4,25;13632;United Kingdom
573267;72802C;VANILLA SCENT CANDLE JEWELLED BOX;3;28/10/2011 12:44;4,25;;United Kingdom
573583;72802B;OCEAN SCENT CANDLE IN JEWELLED BOX;6;31/10/2011 14:29;4,25;14167;United Kingdom
573583;72802C;VANILLA SCENT CANDLE JEWELLED BOX;6;31/10/2011 14:29;4,25;14167;United Kingdom
573841;72802B;OCEAN SCENT CANDLE IN JEWELLED BOX;1;01/11/2011 11:39;4,25;14995;United Kingdom
573841;72802C;VANILLA SCENT CANDLE JEWELLED BOX;2;01/11/2011 11:39;4,25;14995;United Kingdom
574040;72802B;OCEAN SCENT CANDLE IN JEWELLED BOX;1;02/11/2011 13:01;4,25;14974;United Kingdom
574077;72802C;VANILLA SCENT CANDLE JEWELLED BOX;2;02/11/2011 15:56;4,25;17999;United Kingdom
574077;72802B;OCEAN SCENT CANDLE IN JEWELLED BOX;1;02/11/2011 15:56;4,25;17999;United Kingdom
574319;72802C;VANILLA SCENT CANDLE JEWELLED BOX;180;03/11/2011 19:15;1;15482;United Kingdom
574319;72802B;OCEAN SCENT CANDLE IN JEWELLED BOX;162;03/11/2011 19:15;1;15482;United Kingdom
574530;72802C;VANILLA SCENT CANDLE JEWELLED BOX;2;04/11/2011 14:07;4,25;16887;United Kingdom
574530;72802C;VANILLA SCENT CANDLE JEWELLED BOX;6;04/11/2011 14:07;4,25;16887;United Kingdom
C574584;72802C;VANILLA SCENT CANDLE JEWELLED BOX;-180;04/11/2011 18:11;1;15482;United Kingdom
C574584;72802B;OCEAN SCENT CANDLE IN JEWELLED BOX;-162;04/11/2011 18:11;1;15482;United Kingdom
576386;72802A;ROSE SCENT CANDLE IN JEWELLED BOX;36;15/11/2011 09:42;3,81;13777;United Kingdom
C577821;72802A;ROSE SCENT CANDLE IN JEWELLED BOX;-1;22/11/2011 09:29;4,25;13777;United Kingdom
578149;72802c;VANILLA SCENT CANDLE JEWELLED BOX;1;23/11/2011 11:11;8,29;;United Kingdom
C579752;72802C;VANILLA SCENT CANDLE JEWELLED BOX;-1;30/11/2011 14:46;3,81;13777;United Kingdom
579986;72802A;ROSE SCENT CANDLE IN JEWELLED BOX;18;01/12/2011 11:18;3,81;13777;United Kingdom
